Sat Sep 26 17:34:34 2020: Node fa20-cs425-g51-06.cs.illinois.edu:3256-17:34:32 joined the group.
Sat Sep 26 17:34:34 2020: Node fa20-cs425-g51-04.cs.illinois.edu:3256-17:34:32 joined the group.
Sat Sep 26 17:34:34 2020: Node fa20-cs425-g51-09.cs.illinois.edu:3256-17:34:32 joined the group.
Sat Sep 26 17:34:34 2020: Node fa20-cs425-g51-05.cs.illinois.edu:3256-17:34:32 joined the group.
Sat Sep 26 17:34:34 2020: Node fa20-cs425-g51-03.cs.illinois.edu:3256-17:34:32 joined the group.
Sat Sep 26 17:34:37 2020: Node fa20-cs425-g51-02.cs.illinois.edu:3256-17:34:32 failed.
Sat Sep 26 17:34:37 2020: Node fa20-cs425-g51-08.cs.illinois.edu:3256-17:34:32 failed.
Sat Sep 26 17:34:42 2020: Node fa20-cs425-g51-06.cs.illinois.edu:3256-17:34:32 failed.
Sat Sep 26 17:34:42 2020: Node fa20-cs425-g51-04.cs.illinois.edu:3256-17:34:32 failed.
Sat Sep 26 17:34:42 2020: Node fa20-cs425-g51-09.cs.illinois.edu:3256-17:34:32 failed.
Sat Sep 26 17:34:42 2020: Node fa20-cs425-g51-05.cs.illinois.edu:3256-17:34:32 failed.
Sat Sep 26 17:34:42 2020: Node fa20-cs425-g51-03.cs.illinois.edu:3256-17:34:32 failed.
Sat Sep 26 17:36:42 2020: Node fa20-cs425-g51-10.cs.illinois.edu:3256-17:34:32 failed.
Sat Sep 26 17:40:38 2020: Node fa20-cs425-g51-01.cs.illinois.edu:8080-17:34:22 failed.
